Visualizando - ggplot2
…
# O que é um conjunto de dados?

---

## Terminologia

- Cada linha é uma **observação**
- Cada coluna é uma **variável**

```r
starwars
```

```
## # A tibble: 87 x 14
##   name  height  mass hair_color skin_color eye_color birth_year
##   <chr>  <int> <dbl> <chr>      <chr>      <chr>          <dbl>
## 1 Luke~    172    77 blond      fair       blue            19  
## 2 C-3PO    167    75 <NA>       gold       yellow         112  
## 3 R2-D2     96    32 <NA>       white, bl~ red             33  
## 4 Dart~    202   136 none       white      yellow          41.9
## 5 Leia~    150    49 brown      light      brown           19  
## 6 Owen~    178   120 brown, gr~ light      blue            52  
## # ... with 81 more rows, and 7 more variables: sex <chr>,
## #   gender <chr>, homeworld <chr>, species <chr>, films <list>,
## #   vehicles <list>, starships <list>
```
…
